4.19790175298
5.34883221723
5.94787423131
4.80185606236
4.51175731769
4.43660975227
4.96954753557
4.46145653985
5.22006193531
4.09395381709
4.99450220808
4.98575718751
4.55157408947
5.12548767462
4.42385779065
4.7397020637
4.11057712785
4.64334080482
3.57044990486
4.62937759784
3.73218261129
3.38239562799
4.28008489454
4.38005559265
2.38210460666
4.58940529113
3.33120669609
3.52929364285
4.86685637268
4.4103552218
4.75060369815
3.60792839164
3.41073920663
3.53443277901
3.50449585743
3.7540616061
3.53315140408
4.58082900292
3.62058958816
2.88325596817
3.18216373986
3.30842617057
3.29339585691
2.75558178751
3.35177735391
3.48025233969
3.76412066166
3.1778677812
2.33359626046
2.34877068943
4.04550199403
3.6284106723
2.78100849902
2.74736758745
3.75897832837
2.39640161517
3.48242198534
2.62458158643
3.05956328491
2.90968753109
1.9261101119
1.50956898717
3.19030785976
1.28298571552
1.39916986996
1.65655769391
1.83338821931
1.70098203004
1.77421986729
2.34409270557
2.3581164689
2.16023379843
1.03843174086
1.02261088618
0.658845987702
1.46423612432
0.848123511226
1.71214433924
0.90908590668
0.817227866884
1.05451551308
0.699395624097
1.61637858751
0.927648845918
1.50148458865
2.19455602162
1.1603555505
0.268998589331
-0.50291450063
-0.0323708801863
0.00250264181329
-0.456985471868
0.273234150169
0.0666873023293
0.0996559882419
-0.718414722551
-0.511051585005
0.0156672584159
-0.129086607552
0.0177281745142
0.0331679044691
1.12472280435
0.644092376578
