0.307692307692
0.714285714286
1.0
0.0
0.307692307692
0.4
0.833333333333
0.571428571429
0.2
0.545454545455
0.571428571429
0.769230769231
0.5
0.222222222222
0.0
0.714285714286
0.833333333333
0.857142857143
0.4
0.923076923077
0.5
0.222222222222
0.428571428571
0.875
0.461538461538
1.0
0.714285714286
0.166666666667
0.2
0.428571428571
0.0
0.625
0.363636363636
0.428571428571
0.153846153846
0.444444444444
0.833333333333
0.533333333333
0.363636363636
0.714285714286
0.4
0.625
0.833333333333
0.0
0.666666666667
0.4
0.181818181818
0.5
0.421052631579
0.923076923077
0.571428571429
0.307692307692
0.666666666667
0.666666666667
0.833333333333
1.0
0.4
0.769230769231
0.666666666667
0.833333333333
0.235294117647
0.0
0.4
0.181818181818
0.0
0.0
0.837209302326
0.461538461538
0.25
0.315789473684
0.181818181818
0.8
0.666666666667
0.833333333333
0.181818181818
0.428571428571
1.0
0.666666666667
0.615384615385
0.692307692308
0.461538461538
0.4
1.0
0.666666666667
0.727272727273
0.833333333333
0.833333333333
0.210526315789
0.666666666667
0.333333333333
0.25
0.75
0.8
0.4
0.909090909091
0.461538461538
0.545454545455
0.666666666667
0.714285714286
0.545454545455
0.533333333333
0.153846153846
0.5
0.615384615385
0.545454545455
0.666666666667
0.363636363636
0.909090909091
0.6
0.75
0.769230769231
0.4
0.0
0.307692307692
0.909090909091
0.545454545455
0.545454545455
0.181818181818
0.857142857143
0.533333333333
0.6
0.375
0.736842105263
0.444444444444
0.833333333333
0.933333333333
0.4
0.142857142857
0.6
0.545454545455
0.533333333333
0.153846153846
0.8
0.727272727273
0.8
0.5
0.545454545455
0.727272727273
0.0
0.714285714286
0.461538461538
0.6
0.857142857143
1.0
0.75
0.6
0.583333333333
0.333333333333
0.6
0.5
0.363636363636
0.0
0.0
0.4
0.692307692308
0.428571428571
0.8
0.5
1.0
0.666666666667
1.0
0.4
0.5
0.545454545455
0.769230769231
0.75
0.769230769231
1.0
0.615384615385
0.8
0.166666666667
0.933333333333
0.909090909091
0.181818181818
0.4
0.181818181818
0.615384615385
0.2
0.333333333333
0.363636363636
0.0
0.166666666667
0.0
0.666666666667
0.285714285714
0.285714285714
0.545454545455
0.363636363636
0.0
0.857142857143
0.363636363636
0.2
0.428571428571
0.615384615385
0.615384615385
0.6
0.363636363636
0.769230769231
0.666666666667
0.75
0.470588235294
0.666666666667
0.222222222222
0.545454545455
0.142857142857
0.333333333333
0.6
0.727272727273
0.2
0.5
0.363636363636
0.0
0.5
0.0
0.5
0.533333333333
0.461538461538
0.571428571429
0.705882352941
0.75
0.8
0.6
0.470588235294
0.571428571429
0.333333333333
0.833333333333
0.6
0.666666666667
0.166666666667
0.5
0.833333333333
0.5
0.428571428571
0.714285714286
0.333333333333
0.142857142857
0.666666666667
0.444444444444
0.4
0.666666666667
0.714285714286
0.857142857143
0.363636363636
0.714285714286
0.333333333333
0.857142857143
0.615384615385
0.727272727273
0.166666666667
0.545454545455
0.333333333333
0.545454545455
0.882352941176
0.736842105263
0.181818181818
0.153846153846
0.181818181818
0.545454545455
0.833333333333
0.0
0.25
0.8
0.666666666667
0.533333333333
0.307692307692
0.714285714286
0.75
0.4
0.153846153846
0.666666666667
0.5
0.0
0.142857142857
0.0
0.285714285714
0.5
0.857142857143
1.0
0.6
0.923076923077
0.307692307692
0.833333333333
0.25
1.0
0.166666666667
0.8
0.8
0.5
0.545454545455
0.6
0.285714285714
0.545454545455
0.461538461538
0.75
0.833333333333
0.714285714286
0.461538461538
0.785714285714
0.153846153846
0.75
0.0
0.545454545455
0.428571428571
0.970588235294
0.428571428571
0.0
0.470588235294
0.333333333333
0.166666666667
0.266666666667
0.25
0.166666666667
0.769230769231
0.4
0.142857142857
0.0
0.6
0.571428571429
0.5
0.857142857143
1.0
0.461538461538
0.363636363636
0.75
0.2
0.615384615385
0.666666666667
0.666666666667
0.545454545455
0.0
0.307692307692
0.285714285714
0.6
0.166666666667
0.833333333333
0.5
0.714285714286
0.333333333333
0.166666666667
0.857142857143
0.833333333333
0.375
0.75
0.727272727273
0.545454545455
0.8
0.461538461538
0.769230769231
0.615384615385
0.25
0.0
0.4
0.0
0.833333333333
0.0
0.5
0.333333333333
0.181818181818
0.0
0.714285714286
0.333333333333
0.8
0.666666666667
0.6
0.181818181818
0.615384615385
0.769230769231
0.461538461538
0.727272727273
0.571428571429
0.833333333333
0.461538461538
0.909090909091
0.875
0.0
0.461538461538
0.833333333333
0.615384615385
0.444444444444
0.133333333333
0.333333333333
0.615384615385
0.8
0.666666666667
0.333333333333
0.333333333333
0.833333333333
0.333333333333
0.666666666667
0.857142857143
0.285714285714
0.8
0.615384615385
0.769230769231
0.833333333333
0.25
0.333333333333
0.181818181818
0.428571428571
0.25
0.5
0.823529411765
0.5
0.5
0.8
0.8
0.307692307692
0.615384615385
0.285714285714
0.5
0.181818181818
0.266666666667
0.428571428571
0.428571428571
0.8
0.363636363636
0.363636363636
0.75
0.375
0.25
0.727272727273
0.909090909091
0.461538461538
0.5
0.933333333333
0.266666666667
0.833333333333
0.666666666667
0.75
0.0
0.571428571429
0.8
0.363636363636
0.307692307692
0.769230769231
0.0
0.235294117647
1.0
0.823529411765
0.285714285714
0.5
0.75
0.833333333333
0.444444444444
0.0
0.833333333333
0.6
0.714285714286
0.166666666667
0.4
0.615384615385
0.0
0.307692307692
0.461538461538
0.333333333333
0.25
0.0
0.666666666667
0.0
0.923076923077
0.8
0.545454545455
0.307692307692
0.75
0.461538461538
0.571428571429
0.5
0.181818181818
0.0
0.428571428571
0.153846153846
0.307692307692
0.333333333333
0.615384615385
0.6
0.125
0.5
0.0
0.0
0.666666666667
0.2
0.0
0.727272727273
0.363636363636
0.8
0.833333333333
0.2
0.727272727273
0.8
0.666666666667
0.769230769231
0.75
0.4
0.5
0.166666666667
0.470588235294
0.6
0.333333333333
0.941176470588
0.714285714286
0.823529411765
0.833333333333
0.75
0.6
0.588235294118
0.4
0.769230769231
0.8
0.6
0.0
0.857142857143
0.875
0.545454545455
0.823529411765
0.823529411765
0.666666666667
0.8
0.769230769231
0.25
0.307692307692
0.4
0.666666666667
0.461538461538
0.0
0.0
0.615384615385
0.615384615385
0.5
0.142857142857
0.307692307692
0.0
0.8
0.266666666667
0.666666666667
0.8
0.666666666667
0.8
0.666666666667
0.153846153846
0.0
0.6
0.181818181818
0.571428571429
0.769230769231
0.333333333333
0.833333333333
0.266666666667
0.181818181818
0.833333333333
0.8125
0.25
0.363636363636
0.8
0.6
0.428571428571
0.8
0.461538461538
0.727272727273
0.5
0.0
0.631578947368
0.461538461538
0.666666666667
0.909090909091
0.470588235294
0.545454545455
0.727272727273
0.142857142857
0.166666666667
0.545454545455
0.470588235294
0.0
0.0
0.714285714286
0.857142857143
0.166666666667
0.8
1.0
0.6
0.8
0.533333333333
0.769230769231
0.285714285714
0.333333333333
0.769230769231
0.666666666667
0.0
0.222222222222
0.4
0.0
0.666666666667
0.4
0.0
0.5
0.6
0.923076923077
0.8
0.933333333333
0.5
0.2
0.833333333333
0.0
0.461538461538
0.666666666667
0.0
0.666666666667
0.75
0.714285714286
0.5
0.909090909091
0.888888888889
0.888888888889
0.363636363636
0.909090909091
0.923076923077
0.666666666667
0.666666666667
0.363636363636
0.769230769231
0.181818181818
0.888888888889
0.3
0.375
0.571428571429
0.666666666667
0.545454545455
0.181818181818
0.5
0.769230769231
0.6
0.545454545455
0.727272727273
0.307692307692
0.833333333333
0.923076923077
0.909090909091
0.888888888889
0.363636363636
0.571428571429
0.625
0.5
0.444444444444
0.4
0.875
0.666666666667
1.0
0.181818181818
0.0
0.615384615385
0.666666666667
0.142857142857
0.714285714286
0.153846153846
0.666666666667
0.727272727273
0.833333333333
0.307692307692
0.375
0.461538461538
0.363636363636
0.545454545455
0.181818181818
0.5
0.545454545455
0.666666666667
0.25
0.266666666667
0.363636363636
0.181818181818
0.363636363636
0.5
0.461538461538
0.307692307692
0.333333333333
0.833333333333
0.4
0.769230769231
0.833333333333
0.4
0.571428571429
0.166666666667
0.615384615385
0.714285714286
0.6
1.0
0.666666666667
0.909090909091
0.333333333333
0.923076923077
0.777777777778
0.461538461538
0.769230769231
0.5
0.6
0.0
0.571428571429
0.769230769231
0.8
0.4
0.705882352941
0.833333333333
0.166666666667
0.444444444444
0.6
0.285714285714
1.0
0.769230769231
0.625
0.4
0.545454545455
1.0
1.0
0.333333333333
0.2
0.0
0.333333333333
0.666666666667
0.769230769231
1.0
0.4
0.8
0.153846153846
0.857142857143
0.8
0.857142857143
0.727272727273
0.428571428571
0.727272727273
0.714285714286
0.833333333333
0.555555555556
0.428571428571
0.0
0.142857142857
1.0
0.615384615385
0.25
0.923076923077
0.0
0.666666666667
0.307692307692
1.0
0.333333333333
0.333333333333
0.769230769231
0.363636363636
0.571428571429
0.727272727273
0.166666666667
0.461538461538
0.5625
0.142857142857
0.285714285714
0.176470588235
0.1
0.0
0.333333333333
0.0
0.142857142857
0.142857142857
0.117647058824
0.0
0.0
0.0
0.111111111111
0.0
0.0
0.133333333333
0.545454545455
0.470588235294
0.0
0.470588235294
0.333333333333
0.380952380952
0.307692307692
0.0
0.0
0.235294117647
0.272727272727
0.0
0.444444444444
0.0
0.0
0.0
0.2
0.111111111111
0.0
0.0
0.0
0.222222222222
0.0
0.0
0.0
0.25
0.210526315789
0.0
0.133333333333
0.0
0.3
0.1
0.0
0.0
0.6875
0.2
0.4
0.25
0.266666666667
0.0
0.214285714286
0.142857142857
0.125
0.315789473684
0.166666666667
0.111111111111
0.0
0.142857142857
0.0
0.0
0.0
0.148148148148
0.0
0.4
0.545454545455
0.0
0.533333333333
0.0
0.333333333333
0.0
0.0
0.0
0.0
0.0
0.222222222222
0.1875
0.0
0.285714285714
0.0
0.0
0.111111111111
0.375
0.0
0.421052631579
0.285714285714
0.473684210526
0.352941176471
0.277777777778
0.105263157895
0.173913043478
0.1
0.125
0.3125
0.0
0.0
0.125
0.133333333333
0.277777777778
0.0
0.428571428571
0.111111111111
0.181818181818
0.0
0.333333333333
0.0
0.285714285714
0.444444444444
0.0
0.117647058824
0.133333333333
0.0
0.142857142857
0.0909090909091
0.0
0.25
0.0
0.166666666667
0.0
0.222222222222
0.571428571429
0.266666666667
0.0
0.25
0.0
0.0
0.0
0.0
0.0
0.125
0.222222222222
0.2
0.0
0.0
0.0
0.210526315789
0.47619047619
0.444444444444
0.333333333333
0.222222222222
0.0
0.0
0.352941176471
0.0
0.105263157895
0.0
0.285714285714
0.166666666667
0.0
0.0
0.555555555556
0.315789473684
0.428571428571
0.153846153846
0.111111111111
0.461538461538
0.333333333333
0.333333333333
0.0
0.0
0.125
0.0
0.0
0.0
0.153846153846
0.0
0.105263157895
0.1
0.666666666667
0.470588235294
0.2
0.375
0.461538461538
0.266666666667
0.0
0.555555555556
0.133333333333
0.0
0.0
0.266666666667
0.333333333333
0.266666666667
0.0
0.0
0.235294117647
0.454545454545
0.142857142857
0.142857142857
0.142857142857
0.4
0.0
0.333333333333
0.466666666667
0.210526315789
0.0
0.0
0.133333333333
0.545454545455
0.4
0.222222222222
0.428571428571
0.125
0.285714285714
0.0
0.25
0.153846153846
0.133333333333
0.266666666667
0.133333333333
0.285714285714
0.0909090909091
0.142857142857
0.222222222222
0.15
0.125
0.714285714286
0.307692307692
0.5
0.0
0.0
0.0
0.0
0.0
0.142857142857
0.0
0.0
0.0
0.0
0.307692307692
0.0
0.153846153846
0.5
0.538461538462
0.25
0.375
0.3
0.35
0.117647058824
0.285714285714
0.125
0.285714285714
0.0
0.185185185185
0.352941176471
0.0
0.0
0.0
0.0
0.0
0.222222222222
0.545454545455
0.666666666667
0.375
0.291666666667
0.4
0.0
0.25
0.0
0.0
0.125
0.0
0.0909090909091
0.0
0.333333333333
0.266666666667
0.266666666667
0.352941176471
0.0
0.538461538462
0.285714285714
0.375
0.0
0.142857142857
0.0
0.0
0.25
0.142857142857
0.166666666667
0.0
0.235294117647
0.0
0.25
0.416666666667
0.235294117647
0.0
0.190476190476
0.2
0.08
0.105263157895
0.0
0.0
0.352941176471
0.0
0.222222222222
0.0
0.0
0.105263157895
0.117647058824
0.235294117647
0.142857142857
0.0
0.125
0.0
0.235294117647
0.142857142857
0.117647058824
0.117647058824
0.352941176471
0.0
0.888888888889
0.571428571429
0.55
0.434782608696
0.333333333333
0.388888888889
0.521739130435
0.142857142857
0.153846153846
0.25
0.166666666667
0.235294117647
0.0
0.333333333333
0.133333333333
0.357142857143
0.0
0.0
0.153846153846
0.0
0.0
0.0
0.375
0.0
0.666666666667
0.333333333333
0.5
0.142857142857
0.25
0.181818181818
0.444444444444
0.181818181818
0.0
0.0
0.235294117647
0.0
0.142857142857
0.1
0.125
0.4
0.4
0.0
0.125
0.5
0.315789473684
0.0
0.0
0.0
0.0
0.0
0.5
0.125
0.428571428571
0.0
0.2
0.0952380952381
0.0
0.25
0.0
0.0
0.545454545455
0.833333333333
0.0
0.75
0.666666666667
0.666666666667
1.0
0.571428571429
0.714285714286
1.0
0.285714285714
0.714285714286
0.444444444444
0.571428571429
0.333333333333
0.0
0.5
0.833333333333
0.909090909091
0.0
1.0
0.428571428571
0.666666666667
0.545454545455
0.0
0.0
0.666666666667
0.666666666667
0.769230769231
0.6
0.75
0.666666666667
0.222222222222
0.222222222222
0.888888888889
0.0
0.727272727273
0.142857142857
0.7
1.0
0.166666666667
0.615384615385
1.0
0.666666666667
0.571428571429
0.8
1.0
0.285714285714
0.5
0.1875
0.75
0.769230769231
0.285714285714
1.0
0.666666666667
0.625
0.714285714286
0.4
0.666666666667
0.909090909091
0.909090909091
0.666666666667
0.0
0.857142857143
0.25
0.0
1.0
0.444444444444
0.444444444444
0.8
0.666666666667
0.666666666667
0.333333333333
0.666666666667
0.571428571429
0.6
0.285714285714
0.777777777778
0.0
0.8
0.714285714286
0.7
0.0
0.4
0.833333333333
0.833333333333
0.5
0.6
0.285714285714
0.4
0.4
0.307692307692
0.285714285714
0.666666666667
0.5
0.888888888889
0.769230769231
0.727272727273
0.714285714286
0.285714285714
0.6
0.0
0.714285714286
0.0
0.666666666667
0.666666666667
0.571428571429
0.0
1.0
0.916666666667
0.571428571429
0.8
0.666666666667
0.615384615385
0.857142857143
0.888888888889
0.222222222222
0.909090909091
1.0
0.5
0.352941176471
0.538461538462
0.555555555556
0.727272727273
0.857142857143
0.333333333333
1.0
0.533333333333
0.444444444444
0.727272727273
0.4
0.166666666667
0.0
0.714285714286
0.5
0.615384615385
0.769230769231
0.666666666667
0.5
0.625
0.923076923077
0.909090909091
0.666666666667
0.666666666667
0.941176470588
0.8
0.857142857143
0.571428571429
1.0
0.0
0.5
0.818181818182
0.5
0.727272727273
0.833333333333
0.5
0.4
0.25
0.857142857143
0.909090909091
0.8
1.0
0.75
0.285714285714
0.888888888889
0.833333333333
0.0
0.25
0.888888888889
0.6
0.444444444444
0.333333333333
0.571428571429
0.4
0.533333333333
0.923076923077
0.545454545455
0.0
0.777777777778
1.0
0.0
0.5
0.9
0.5
0.25
0.583333333333
0.8
0.666666666667
0.769230769231
0.7
0.8
0.666666666667
1.0
0.727272727273
0.8
0.857142857143
0.4
0.909090909091
0.235294117647
0.461538461538
0.714285714286
0.571428571429
0.8
0.666666666667
0.8
0.625
0.909090909091
0.444444444444
0.4
0.444444444444
0.833333333333
0.5
0.8
0.545454545455
0.5
0.0
0.0
0.6
0.75
0.833333333333
0.666666666667
0.222222222222
0.0
0.857142857143
0.6
0.444444444444
0.571428571429
0.9375
0.0
0.8
0.0
0.571428571429
0.857142857143
0.0
0.923076923077
0.333333333333
0.4
0.5
0.5
0.625
0.636363636364
0.714285714286
0.583333333333
0.909090909091
0.909090909091
0.6
0.916666666667
0.923076923077
0.727272727273
0.727272727273
0.0
0.571428571429
0.888888888889
0.555555555556
0.333333333333
0.888888888889
0.75
0.666666666667
0.8
0.0
0.0
0.0
0.533333333333
0.666666666667
0.0
0.5
0.928571428571
0.615384615385
0.944444444444
0.0
0.928571428571
0.8
0.909090909091
0.5
1.0
0.8
0.0
0.666666666667
1.0
0.461538461538
0.444444444444
0.909090909091
0.0
0.666666666667
0.25
0.9375
0.857142857143
0.5
0.714285714286
0.4
0.571428571429
0.333333333333
0.2
0.666666666667
0.888888888889
0.4
0.625
0.5
0.6
0.444444444444
0.307692307692
1.0
0.166666666667
0.461538461538
0.9375
0.769230769231
0.0
0.666666666667
0.333333333333
0.285714285714
0.307692307692
0.909090909091
0.571428571429
0.583333333333
0.714285714286
0.0
0.571428571429
0.545454545455
0.833333333333
0.181818181818
0.666666666667
1.0
0.857142857143
0.666666666667
0.5
1.0
0.75
0.941176470588
0.733333333333
0.5
0.6
0.0
0.684210526316
0.545454545455
0.5
0.0
0.538461538462
0.727272727273
0.666666666667
0.5
0.727272727273
1.0
0.777777777778
0.8
0.5
0.75
0.8
1.0
0.923076923077
0.666666666667
0.545454545455
0.222222222222
0.75
0.181818181818
0.636363636364
0.363636363636
0.5625
0.666666666667
0.909090909091
1.0
0.571428571429
0.933333333333
0.181818181818
0.666666666667
0.909090909091
0.222222222222
0.75
0.5
0.533333333333
0.222222222222
0.444444444444
0.888888888889
0.571428571429
1.0
0.3
0.8
0.266666666667
0.25
0.714285714286
0.0
0.166666666667
0.571428571429
1.0
0.0
0.857142857143
0.666666666667
0.923076923077
0.75
0.333333333333
0.666666666667
0.75
0.5
0.333333333333
0.666666666667
0.9
0.0
0.0
0.583333333333
0.4
0.4
0.416666666667
0.727272727273
0.0
0.4
0.923076923077
0.375
0.866666666667
0.375
0.285714285714
0.0
0.571428571429
1.0
0.714285714286
0.909090909091
0.333333333333
0.444444444444
0.8
0.4
0.777777777778
0.714285714286
0.785714285714
1.0
0.333333333333
1.0
0.285714285714
0.428571428571
0.444444444444
0.75
0.166666666667
0.0
0.461538461538
0.285714285714
0.75
0.5
0.545454545455
0.181818181818
0.8
0.0
0.4
0.5
0.181818181818
1.0
0.833333333333
0.0
0.461538461538
0.583333333333
0.0
0.833333333333
0.777777777778
0.0
0.727272727273
0.909090909091
0.285714285714
0.8
0.555555555556
0.545454545455
1.0
0.909090909091
0.8
0.25
0.545454545455
0.454545454545
0.555555555556
0.0
0.3
0.8
0.916666666667
0.8
0.0
0.631578947368
0.8
0.0
0.9375
0.4
0.6
0.285714285714
0.5
0.222222222222
0.307692307692
0.333333333333
0.444444444444
0.625
0.428571428571
0.909090909091
0.615384615385
0.888888888889
0.5
0.333333333333
0.909090909091
0.0
0.333333333333
0.625
0.5
0.75
0.636363636364
0.875
0.571428571429
0.5
0.333333333333
0.375
0.222222222222
0.5
0.333333333333
0.571428571429
0.615384615385
0.454545454545
1.0
0.666666666667
0.666666666667
0.0
0.769230769231
0.133333333333
0.142857142857
0.142857142857
0.214285714286
0.909090909091
1.0
0.4
0.727272727273
0.333333333333
0.8
0.5
0.666666666667
0.727272727273
0.6
0.25
0.333333333333
0.4
0.666666666667
0.928571428571
0.555555555556
0.0
0.666666666667
0.444444444444
1.0
0.0
0.7
0.769230769231
0.583333333333
0.666666666667
0.909090909091
0.888888888889
0.7
0.181818181818
0.714285714286
0.571428571429
0.153846153846
0.769230769231
0.285714285714
0.153846153846
0.666666666667
0.571428571429
0.8
0.909090909091
0.5
0.444444444444
1.0
0.727272727273
0.25
0.545454545455
0.777777777778
0.166666666667
0.0
0.0
0.25
0.363636363636
0.0
0.545454545455
0.8
0.6
0.2
0.222222222222
0.888888888889
0.727272727273
0.375
0.818181818182
0.4
0.4
0.285714285714
0.727272727273
0.571428571429
0.333333333333
0.285714285714
0.5
1.0
0.571428571429
0.75
0.0
0.9
1.0
0.333333333333
0.6
0.909090909091
0.285714285714
0.909090909091
0.833333333333
0.857142857143
0.923076923077
0.3125
0.636363636364
0.181818181818
0.0
0.5
0.555555555556
0.666666666667
0.181818181818
0.272727272727
0.8
0.333333333333
0.333333333333
0.75
0.666666666667
0.4
0.888888888889
0.538461538462
0.5
0.666666666667
1.0
0.6
0.222222222222
0.375
0.714285714286
0.0
0.5
0.0
0.5
0.0
0.7
0.285714285714
0.9375
0.933333333333
0.0
0.4375
0.0
0.777777777778
0.0
0.727272727273
1.0
0.636363636364
0.666666666667
1.0
0.571428571429
0.25
0.181818181818
0.909090909091
0.285714285714
1.0
0.8
0.583333333333
0.909090909091
0.5
0.909090909091
0.5
0.666666666667
0.666666666667
0.5
0.714285714286
0.75
0.4
1.0
1.0
0.714285714286
0.857142857143
0.25
0.222222222222
0.266666666667
0.333333333333
0.727272727273
0.533333333333
0.222222222222
0.857142857143
0.0
0.2
0.5
0.928571428571
0.5
0.666666666667
0.666666666667
0.0
0.222222222222
0.642857142857
0.933333333333
0.555555555556
0.0
0.6
0.555555555556
0.25
0.909090909091
0.666666666667
0.666666666667
0.666666666667
0.888888888889
0.944444444444
0.923076923077
0.6
1.0
0.153846153846
0.666666666667
0.363636363636
0.636363636364
0.5
0.8
0.666666666667
0.222222222222
0.714285714286
0.769230769231
0.571428571429
0.2
0.5
0.666666666667
1.0
0.714285714286
0.5
0.2
0.0
0.75
0.888888888889
0.25
0.8
0.5
0.923076923077
0.857142857143
0.8
0.923076923077
0.7
0.25
0.0
0.0
0.833333333333
0.222222222222
0.555555555556
0.4
0.666666666667
0.571428571429
0.666666666667
0.181818181818
0.833333333333
0.571428571429
0.428571428571
0.5
0.4
0.235294117647
0.454545454545
0.333333333333
0.8
0.714285714286
0.866666666667
0.444444444444
0.9
0.8
0.333333333333
0.888888888889
0.857142857143
0.153846153846
0.166666666667
0.923076923077
0.923076923077
0.363636363636
0.75
0.75
0.75
1.0
0.0
0.909090909091
0.5
0.4
0.888888888889
0.6
0.235294117647
0.25
0.4
0.909090909091
0.533333333333
0.2
0.222222222222
0.285714285714
0.727272727273
0.5
0.5
0.909090909091
0.909090909091
0.888888888889
1.0
0.727272727273
0.733333333333
0.833333333333
0.857142857143
0.444444444444
0.75
0.307692307692
0.166666666667
0.444444444444
0.4
0.533333333333
0.444444444444
0.0
0.8
1.0
0.333333333333
0.545454545455
0.588235294118
0.714285714286
1.0
0.25
0.363636363636
0.142857142857
0.8125
0.642857142857
0.727272727273
0.727272727273
0.153846153846
0.666666666667
0.857142857143
0.190476190476
0.333333333333
0.6
0.461538461538
0.75
0.909090909091
1.0
0.6
0.0
0.0
0.0
0.8
0.75
0.6
0.857142857143
0.6
0.428571428571
0.727272727273
0.636363636364
0.461538461538
0.75
0.769230769231
0.4
0.533333333333
0.75
0.923076923077
0.0
0.75
0.307692307692
0.545454545455
0.307692307692
0.62962962963
0.133333333333
0.888888888889
0.75
0.5
0.375
0.428571428571
0.75
0.909090909091
0.470588235294
0.923076923077
0.5
0.181818181818
0.727272727273
1.0
0.444444444444
0.285714285714
0.769230769231
0.6
0.166666666667
0.888888888889
0.625
0.222222222222
0.428571428571
0.133333333333
1.0
0.0
0.6
1.0
0.666666666667
0.166666666667
0.222222222222
1.0
0.5
0.461538461538
0.25
1.0
0.5
0.8
0.75
0.666666666667
0.444444444444
0.615384615385
0.75
0.615384615385
0.888888888889
0.666666666667
0.470588235294
0.5
0.8
0.727272727273
0.727272727273
0.666666666667
0.2
0.8
0.6
0.6
0.888888888889
0.2
1.0
0.166666666667
0.25
0.727272727273
0.888888888889
0.888888888889
0.307692307692
0.571428571429
1.0
0.545454545455
0.833333333333
0.466666666667
0.0
0.857142857143
0.833333333333
0.25
0.0
0.923076923077
0.8
0.444444444444
0.666666666667
0.4
0.4
0.0
0.571428571429
0.2
0.727272727273
0.25
0.461538461538
0.8
0.307692307692
0.333333333333
0.909090909091
0.333333333333
0.727272727273
0.133333333333
0.545454545455
0.545454545455
0.666666666667
0.222222222222
0.75
0.833333333333
0.6
0.6
0.894736842105
0.923076923077
0.2
0.533333333333
1.0
0.833333333333
0.0
0.666666666667
0.363636363636
0.4
0.363636363636
0.5
0.222222222222
0.8
0.727272727273
0.5
0.571428571429
0.25
0.866666666667
0.153846153846
0.833333333333
0.8
0.2
0.888888888889
0.117647058824
0.75
0.444444444444
1.0
0.166666666667
0.307692307692
0.2
0.75
0.2
0.75
0.181818181818
0.909090909091
0.666666666667
1.0
0.2
0.166666666667
0.888888888889
0.416666666667
0.75
0.4
0.888888888889
0.5
0.428571428571
0.8
0.266666666667
0.615384615385
0.6
0.444444444444
0.0
0.5
0.75
0.0
0.222222222222
0.909090909091
0.888888888889
0.6
0.666666666667
0.75
0.666666666667
0.6
0.666666666667
0.615384615385
0.5
0.75
1.0
0.5
0.6
0.307692307692
0.8
0.909090909091
0.444444444444
0.666666666667
1.0
0.5
1.0
0.888888888889
0.909090909091
0.25
0.6
0.75
0.2
0.666666666667
0.0
0.75
0.555555555556
0.0
0.0
0.2
0.333333333333
0.545454545455
0.666666666667
0.833333333333
0.235294117647
0.8
0.222222222222
0.545454545455
0.4
0.666666666667
0.2
0.444444444444
0.285714285714
0.571428571429
1.0
0.5
0.833333333333
0.857142857143
0.75
0.153846153846
0.8
0.727272727273
0.0
0.181818181818
0.533333333333
0.4
0.666666666667
0.75
0.0
0.5
0.666666666667
0.857142857143
0.533333333333
0.333333333333
0.666666666667
0.142857142857
0.888888888889
0.444444444444
0.166666666667
0.444444444444
0.571428571429
0.333333333333
0.363636363636
0.7
0.571428571429
0.75
0.571428571429
0.181818181818
0.166666666667
0.666666666667
0.769230769231
0.714285714286
0.909090909091
0.769230769231
1.0
0.333333333333
0.666666666667
0.363636363636
0.75
0.571428571429
0.666666666667
1.0
0.545454545455
0.4
0.307692307692
0.933333333333
0.153846153846
0.666666666667
0.428571428571
0.0
0.8
0.0
0.25
1.0
0.266666666667
0.888888888889
0.75
0.307692307692
0.615384615385
0.647058823529
0.6
1.0
0.444444444444
0.133333333333
0.0
0.428571428571
0.2
0.857142857143
0.363636363636
0.526315789474
1.0
0.666666666667
1.0
0.888888888889
0.4
0.545454545455
0.0
0.75
0.285714285714
0.8
0.6
0.571428571429
0.307692307692
0.2
0.75
0.222222222222
0.153846153846
0.75
0.4
0.666666666667
0.461538461538
0.307692307692
0.0
0.0
0.888888888889
0.5
0.8
0.8
0.333333333333
0.727272727273
0.5
1.0
0.5
1.0
0.769230769231
0.6
0.153846153846
0.909090909091
0.75
0.181818181818
0.25
0.0
0.857142857143
0.666666666667
0.142857142857
0.4
0.461538461538
0.0
0.5
0.0
0.75
1.0
0.125
0.5
0.615384615385
0.625
0.235294117647
0.307692307692
0.857142857143
0.153846153846
0.823529411765
0.294117647059
0.428571428571
0.588235294118
0.0
0.166666666667
0.222222222222
0.727272727273
0.571428571429
0.571428571429
0.666666666667
0.777777777778
0.2
0.375
0.0
0.857142857143
0.666666666667
0.2
0.933333333333
0.25
0.666666666667
0.25
0.636363636364
0.666666666667
0.285714285714
0.4
0.5
0.857142857143
1.0
0.25
0.75
0.166666666667
0.571428571429
0.25
0.307692307692
0.153846153846
0.466666666667
0.888888888889
1.0
0.666666666667
0.363636363636
0.375
0.666666666667
0.363636363636
0.363636363636
0.25
0.888888888889
0.666666666667
0.444444444444
0.857142857143
0.666666666667
0.222222222222
0.615384615385
0.666666666667
0.285714285714
0.285714285714
0.8
0.4
1.0
0.666666666667
0.133333333333
1.0
0.727272727273
0.714285714286
0.25
0.0
0.909090909091
0.555555555556
0.666666666667
0.0
1.0
0.181818181818
0.666666666667
0.75
0.666666666667
0.727272727273
0.363636363636
0.923076923077
0.666666666667
0.666666666667
0.8
0.363636363636
0.615384615385
0.5
0.0
0.666666666667
0.909090909091
0.769230769231
0.5
0.923076923077
0.222222222222
0.833333333333
0.833333333333
0.444444444444
0.142857142857
0.333333333333
0.666666666667
0.857142857143
0.5
0.6
0.307692307692
0.2
1.0
0.142857142857
0.75
0.666666666667
0.266666666667
0.666666666667
0.470588235294
0.461538461538
0.5
0.0
0.181818181818
0.545454545455
0.727272727273
0.153846153846
0.666666666667
0.75
0.909090909091
0.222222222222
0.666666666667
1.0
0.923076923077
0.5
0.666666666667
0.5
0.444444444444
0.0
0.6
0.631578947368
0.625
0.545454545455
0.666666666667
0.444444444444
0.5
0.714285714286
0.333333333333
0.5
0.266666666667
0.533333333333
0.5
0.307692307692
0.8
0.666666666667
0.666666666667
0.285714285714
0.307692307692
0.909090909091
0.222222222222
0.75
0.857142857143
0.833333333333
0.2
0.0
0.857142857143
0.571428571429
0.8
0.285714285714
0.545454545455
0.0
0.4
0.909090909091
0.727272727273
0.363636363636
0.6
0.888888888889
0.615384615385
0.8
0.615384615385
0.833333333333
0.428571428571
1.0
0.388888888889
0.916666666667
0.0
0.8
0.125
0.666666666667
0.333333333333
0.3125
0.888888888889
0.333333333333
0.666666666667
0.421052631579
0.45
0.666666666667
0.25
0.0
0.666666666667
0.25
0.666666666667
0.133333333333
0.5
0.461538461538
0.705882352941
0.2
0.0
0.8
0.0
0.842105263158
1.0
0.333333333333
0.571428571429
0.222222222222
0.25
0.75
0.692307692308
0.785714285714
1.0
0.909090909091
0.571428571429
0.75
0.4
0.307692307692
0.25
0.285714285714
0.5
0.666666666667
0.5
0.5
0.0
1.0
0.444444444444
0.888888888889
0.75
0.615384615385
0.75
0.222222222222
0.142857142857
0.666666666667
0.363636363636
0.571428571429
0.461538461538
0.923076923077
0.571428571429
0.857142857143
0.222222222222
0.6
0.4
0.833333333333
0.4
0.8
0.285714285714
0.538461538462
0.0
0.6
0.461538461538
0.727272727273
0.888888888889
0.363636363636
0.571428571429
0.571428571429
0.5
0.4
0.666666666667
0.222222222222
0.444444444444
0.714285714286
0.25
0.545454545455
0.769230769231
0.25
0.714285714286
0.285714285714
0.333333333333
0.888888888889
0.833333333333
0.615384615385
0.888888888889
0.222222222222
0.5
0.6
0.5
0.8
0.666666666667
0.2
0.333333333333
0.222222222222
0.6
1.0
0.545454545455
0.285714285714
0.8
1.0
0.333333333333
0.470588235294
0.363636363636
0.222222222222
0.636363636364
0.857142857143
0.666666666667
0.545454545455
0.25
0.833333333333
0.2
0.4
0.75
0.4
0.571428571429
0.0
0.307692307692
0.181818181818
0.142857142857
0.307692307692
0.888888888889
0.5
0.545454545455
0.375
1.0
0.333333333333
0.647058823529
0.0
0.285714285714
0.8
1.0
0.7
0.666666666667
0.0
0.0
0.574468085106
0.574468085106
0.4
0.4
1.0
0.642857142857
1.0
0.0
0.461538461538
0.8
0.5
0.4
1.0
0.857142857143
0.666666666667
0.0
0.8
0.0
0.625
0.666666666667
0.5
0.857142857143
0.666666666667
0.444444444444
0.0
0.787878787879
0.470588235294
0.4
0.363636363636
0.857142857143
0.571428571429
0.666666666667
0.333333333333
0.181818181818
0.0
0.5
0.772727272727
0.25
0.545454545455
0.0
0.702702702703
0.166666666667
0.416666666667
0.857142857143
0.666666666667
0.380952380952
0.1
0.470588235294
0.0
0.333333333333
0.4
0.0
0.0
0.0
0.733333333333
0.0
0.571428571429
0.5
0.333333333333
0.5
0.0
0.666666666667
0.666666666667
0.454545454545
0.4375
0.444444444444
0.666666666667
0.4
0.166666666667
0.75
0.677419354839
0.133333333333
0.0
0.428571428571
0.173913043478
0.2
0.444444444444
0.5
0.2
0.5
0.666666666667
0.4
0.588235294118
0.0
0.545454545455
0.666666666667
0.0
0.0
0.533333333333
0.4
0.727272727273
0.333333333333
0.571428571429
0.0
0.666666666667
0.266666666667
0.6
0.0
0.25
0.0
0.235294117647
0.8
0.272727272727
0.5
0.333333333333
0.142857142857
0.0
0.333333333333
0.5
0.5
0.0
0.0
0.222222222222
0.4
0.363636363636
0.0
0.3
0.0
0.235294117647
0.142857142857
0.0
0.227272727273
0.0
0.444444444444
0.25
0.222222222222
0.2
0.333333333333
0.0
0.133333333333
0.117647058824
0.0
0.142857142857
0.0
0.181818181818
0.227272727273
0.333333333333
0.142857142857
0.0
0.0
0.0952380952381
0.266666666667
0.296296296296
0.142857142857
0.2
0.0
0.388888888889
0.0
0.333333333333
0.0
0.285714285714
0.0
0.0
0.25
0.111111111111
0.0
0.0
0.0
0.173913043478
0.392857142857
0.285714285714
0.153846153846
0.0
0.0
0.222222222222
0.0
0.375
0.0
0.518518518519
0.142857142857
0.0
0.210526315789
0.0
0.0
0.354838709677
0.0
0.0
0.142857142857
0.4
0.5
0.166666666667
0.0
0.0
0.0
0.153846153846
0.315789473684
0.0
0.0
0.133333333333
0.0
0.0
0.105263157895
0.0
0.0
0.181818181818
0.375
0.478260869565
0.285714285714
0.0
0.555555555556
0.333333333333
0.0
0.0
0.444444444444
0.0
0.0
0.0
0.142857142857
0.0
0.0
0.0
0.166666666667
0.0833333333333
0.166666666667
0.0
0.0
0.515151515152
0.2
0.0
0.25
0.25
0.0
0.0
0.0
0.190476190476
0.0
0.44
0.0
0.285714285714
0.307692307692
0.555555555556
0.0
0.0
0.0
0.0
0.285714285714
0.0
0.285714285714
0.222222222222
0.6
0.111111111111
0.222222222222
0.235294117647
0.352941176471
0.193548387097
0.285714285714
0.0
0.285714285714
0.4
0.3
0.0
0.0
0.0
0.0740740740741
0.0
0.0
0.0
0.0
0.25
0.666666666667
0.0
0.444444444444
0.2
0.0
0.0
0.0909090909091
0.0
0.0
0.25
0.166666666667
0.25
0.153846153846
0.111111111111
0.615384615385
0.133333333333
0.307692307692
0.2
0.25
0.285714285714
0.722222222222
0.272727272727
0.0
0.461538461538
0.0
0.0
0.181818181818
0.0
0.25
0.363636363636
0.0
0.0
0.0
0.0
0.235294117647
0.333333333333
0.379310344828
0.166666666667
0.294117647059
0.722222222222
0.153846153846
0.444444444444
0.333333333333
0.625
0.2
0.2
0.473684210526
0.235294117647
0.142857142857
0.333333333333
0.75
0.0
0.0
0.0
0.0
0.357142857143
0.125
0.0
0.375
0.0
0.111111111111
0.0
0.571428571429
0.181818181818
0.4
0.444444444444
0.285714285714
0.0952380952381
0.166666666667
0.0
0.0
0.8125
0.0
0.0
0.0
0.0
0.0
0.138888888889
0.0833333333333
0.2
0.0
0.0
0.333333333333
0.0
0.2
0.222222222222
0.515151515152
0.434782608696
0.333333333333
0.0
0.333333333333
0.153846153846
0.0
0.0
0.222222222222
0.214285714286
0.0
0.0833333333333
0.4
0.222222222222
0.0
0.2
0.0
0.0
0.0
0.125
0.666666666667
