This is BibTeX, Version 0.99d (TeX Live 2013/Debian)
Capacity: max_strings=35307, hash_size=35307, hash_prime=30011
The top-level auxiliary file: naaclhlt2016.aux
The style file: naaclhlt2016.bst
Database file #1: naaclhlt2016.bib
You've used 13 entries,
            2490 wiz_defined-function locations,
            627 strings with 7824 characters,
and the built_in function-call counts, 7417 in all, are:
= -- 764
> -- 350
< -- 10
+ -- 124
- -- 124
* -- 553
:= -- 1116
add.period$ -- 54
call.type$ -- 13
change.case$ -- 112
chr.to.int$ -- 13
cite$ -- 13
duplicate$ -- 312
empty$ -- 535
format.name$ -- 138
if$ -- 1604
int.to.chr$ -- 1
int.to.str$ -- 0
missing$ -- 13
newline$ -- 81
num.names$ -- 40
pop$ -- 139
preamble$ -- 1
purify$ -- 126
quote$ -- 0
skip$ -- 263
stack$ -- 0
substring$ -- 425
swap$ -- 122
text.length$ -- 10
text.prefix$ -- 0
top$ -- 0
type$ -- 100
warning$ -- 0
while$ -- 57
width$ -- 16
write$ -- 188
