\relax 
\citation{Papineni02}
\citation{agirre2012semeval,agirre2013sem,agirre2014semeval,agirrea2015semeval}
\citation{sultan2015dls}
\citation{sultan2014back}
\@writefile{toc}{\contentsline {section}{\numberline {1}Introduction}{1}}
\newlabel{introduction}{{1}{1}}
\@writefile{toc}{\contentsline {section}{\numberline {2}System description}{1}}
\newlabel{sys-description}{{2}{1}}
\@writefile{toc}{\contentsline {subsection}{\numberline {2.1}Monolingual Alignment}{1}}
\citation{he2015multi}
\citation{pennington2014glove}
\citation{mikolov2013distributed}
\citation{baroni2014don}
\@writefile{toc}{\contentsline {subsection}{\numberline {2.2}Convolutional Neural Network Score}{2}}
\@writefile{toc}{\contentsline {subsection}{\numberline {2.3}Word2Vec}{2}}
\citation{chang2001training}
\citation{WMT:2012}
\bibdata{naaclhlt2016}
\@writefile{toc}{\contentsline {subsection}{\numberline {2.4}Model Combination}{3}}
\@writefile{toc}{\contentsline {section}{\numberline {3}Results}{3}}
\newlabel{results}{{3}{3}}
\@writefile{toc}{\contentsline {section}{\numberline {4}Conclusion}{3}}
\newlabel{conclusion}{{4}{3}}
\bibcite{agirre2012semeval}{\citename {Agirre \bgroup et al.\egroup }2012}
\bibcite{agirre2013sem}{\citename {Agirre \bgroup et al.\egroup }2013}
\bibcite{agirre2014semeval}{\citename {Agirre \bgroup et al.\egroup }2014}
\bibcite{agirrea2015semeval}{\citename {Agirrea \bgroup et al.\egroup }2015}
\bibcite{baroni2014don}{\citename {Baroni \bgroup et al.\egroup }2014}
\bibcite{WMT:2012}{\citename {Callison-Burch \bgroup et al.\egroup }2012}
\bibcite{chang2001training}{\citename {Chang and Lin}2001}
\bibcite{he2015multi}{\citename {He \bgroup et al.\egroup }2015}
\bibcite{mikolov2013distributed}{\citename {Mikolov \bgroup et al.\egroup }2013}
\bibcite{Papineni02}{\citename {Papineni \bgroup et al.\egroup }2002}
\bibcite{pennington2014glove}{\citename {Pennington \bgroup et al.\egroup }2014}
\bibcite{sultan2014back}{\citename {Sultan \bgroup et al.\egroup }2014}
\bibcite{sultan2015dls}{\citename {Sultan \bgroup et al.\egroup }2015}
\bibstyle{naaclhlt2016}
\newlabel{tab:mainResults}{{3}{4}}
\@writefile{lot}{\contentsline {table}{\numberline {1}{\ignorespaces Pearson correlation between the prediction and gold standard data.}}{4}}
